%YAML 1.1
%TAG !u! tag:unity3d.com,2011:
--- !u!21 &2100000
Material:
  serializedVersion: 6
  m_ObjectHideFlags: 0
  m_CorrespondingSourceObject: {fileID: 0}
  m_PrefabInternal: {fileID: 0}
  m_Name: Toon_UnityChan_Eyeline
  m_Shader: {fileID: 4800000, guid: 5e7d37390353da74c8348fc57f7da7a7, type: 3}
  m_ShaderKeywords: 
  m_LightmapFlags: 4
  m_EnableInstancingVariants: 0
  m_DoubleSidedGI: 0
  m_CustomRenderQueue: -1
  stringTagMap: {}
  disabledShaderPasses: []
  m_SavedProperties:
    serializedVersion: 3
    m_TexEnvs:
    - Texture2D_4EB02A20:
        m_Texture: {fileID: 2800000, guid: e315db926a0705845b12da3cc80ea306, type: 3}
        m_Scale: {x: 1, y: 1}
        m_Offset: {x: 0, y: 0}
    m_Floats:
    - Vector1_580E4752: 1
    m_Colors:
    - Color_BD90E50A: {r: 1, g: 1, b: 1, a: 0}
    - Vector4_1A45BEFA: {r: 0.5, g: 0.5, b: -0.5, a: 0}
