%YAML 1.1
%TAG !u! tag:unity3d.com,2011:
--- !u!21 &2100000
Material:
  serializedVersion: 6
  m_ObjectHideFlags: 0
  m_PrefabParentObject: {fileID: 0}
  m_PrefabInternal: {fileID: 0}
  m_Name: Unlit_WaterWrinkles
  m_Shader: {fileID: 4800000, guid: eac7453a39a2f9d419831c91e8937769, type: 3}
  m_ShaderKeywords: 
  m_LightmapFlags: 4
  m_EnableInstancingVariants: 0
  m_DoubleSidedGI: 0
  m_CustomRenderQueue: -1
  stringTagMap: {}
  disabledShaderPasses: []
  m_SavedProperties:
    serializedVersion: 3
    m_TexEnvs:
    - _node_2466:
        m_Texture: {fileID: 2800000, guid: 28c14d93c6de95048b2c6592536c9724, type: 3}
        m_Scale: {x: 1, y: 1}
        m_Offset: {x: 0, y: 0}
    - _node_3911:
        m_Texture: {fileID: 2800000, guid: 47972103210e4e54786fc0e060eb26db, type: 3}
        m_Scale: {x: 2, y: 1}
        m_Offset: {x: 0, y: 0}
    - _node_3911_copy:
        m_Texture: {fileID: 2800000, guid: 47972103210e4e54786fc0e060eb26db, type: 3}
        m_Scale: {x: 1, y: 1}
        m_Offset: {x: 0, y: 0}
    - _node_9527:
        m_Texture: {fileID: 2800000, guid: 28c14d93c6de95048b2c6592536c9724, type: 3}
        m_Scale: {x: 1, y: 1}
        m_Offset: {x: 0, y: 0}
    - _noise:
        m_Texture: {fileID: 2800000, guid: 47972103210e4e54786fc0e060eb26db, type: 3}
        m_Scale: {x: 2, y: 1}
        m_Offset: {x: 0, y: 0}
    - _noise2:
        m_Texture: {fileID: 2800000, guid: 47972103210e4e54786fc0e060eb26db, type: 3}
        m_Scale: {x: 3, y: 1}
        m_Offset: {x: 0, y: 0}
    m_Floats:
    - _Cutoff: 0.5
    - _ScrollSpeed: 0.5
    - _ScrollSpeed2: 1
    - _ScrollSpeed_copy: 1
    - _Tiling: 2
    - _node_4547: 0.111
    - _node_6406: 2
    - _node_6734: 1
    - _node_7778: 10
    m_Colors:
    - _base_color: {r: 1, g: 1, b: 1, a: 1}
    - _node_4450: {r: 1, g: 1, b: 1, a: 1}
